Annotation Cluster 1	Enrichment Score: 7.081055003618629
Category	Term	Count	%	PValue	Genes	List Total	Pop Hits	Pop Total	Fold Enrichment	Bonferroni	Benjamini	FDR
UP_KEYWORDS	Secreted	33	7.482993197278912	1.928041065992801E-10	DIEDEL, CG4267, TOTM, OBP99B, OBP56H, DSK, TO, EBPIII, CG18641, CRZ, ILP3, OBP56A, CG5966, PGRP-SD, TOTA, TOTC, WNT5, DRS, NPLP3, PDF, NPF, OBP83A, ATK, ATTB, ATTC, CG10357, PGRP-SB1, EYS, HUG, PHM, IDGF1, VKG, YP1	423	287	13921	3.7840956829021177	3.6439975370505806E-8	1.2146658567857571E-8	2.394201170652366E-7
GOTERM_CC_DIRECT	GO:0005576~extracellular region	42	9.523809523809524	3.0401026926035846E-8	CG4267, OBP83EF, TOTM, OBP99B, OBP56H, CATHD, TO, EBPIII, PVF1, CG18641, CRZ, ILP3, OBP56A, SCPR-C, CG5966, PGRP-SD, CG5177, KAL1, TOTC, OBP83CD, TLD, WNT5, DRS, PDF, CDA5, NPLP3, CHT2, NPF, OBP83A, OBST-B, ATTB, ATTC, CHT7, CG10357, PGRP-SB1, EYS, CRYS, HUG, IDGF1, PHK-3, YP1, CG4306	293	556	10026	2.5848454342328187	4.5601437095310615E-6	4.5601437095310615E-6	3.630386522512907E-5
UP_SEQ_FEATURE	signal peptide	32	7.2562358276643995	9.746090846521356E-5	CAD89D, TOTM, OBP99B, OBP56H, DSK, TO, EBPIII, PVF1, CRZ, ILP3, OBP56A, BOSS, PGRP-SD, TOTA, GOL, TOTC, CHP, TLD, WNT5, DRS, NPLP3, PDF, CHT2, NPF, OBP83A, ATTB, ATTC, PGRP-SB1, HUG, PHM, IDGF1, YP1	116	427	3113	2.011144310748607	0.043471161077206166	0.021977076483994717	0.13843996636413447

Annotation Cluster 2	Enrichment Score: 5.190725378756017
Category	Term	Count	%	PValue	Genes	List Total	Pop Hits	Pop Total	Fold Enrichment	Bonferroni	Benjamini	FDR
GOTERM_BP_DIRECT	GO:0040003~chitin-based cuticle development	19	4.308390022675737	8.173735715817873E-7	CHT5, DRD, CG34461, CHT2, CPR97EB, CPR100A, CPR72EC, CHT7, CPR49AG, CPR11B, CG13670, CPR92F, CPR49AE, CPR47EF, CCP84AG, CPR62BC, CPR62BB, CPR73D, IDGF1	321	159	10996	4.0934187582045105	5.711811739435024E-4	1.428258894244916E-4	0.0012324067977909081
GOTERM_CC_DIRECT	GO:0031012~extracellular matrix	17	3.8548752834467117	3.537103825149632E-6	CG34461, CPR97EB, CPR100A, ATK, CPR72EC, MUC14A, CPR49AG, CPR11B, CG13670, CPR92F, CPR49AE, CRYS, CPR47EF, CCP84AG, CPR62BC, CPR62BB, CPR73D	293	142	10026	4.096572609719752	5.304257865875739E-4	1.7683986602401447E-4	0.0042238072233025115
INTERPRO	IPR000618:Insect cuticle protein	15	3.4013605442176873	4.509420893477603E-6	CG34461, CPR97EB, CPR100A, CPR72EC, CPR11B, CPR49AG, CG13670, CPR92F, CPR49AE, CRYS, CPR47EF, CCP84AG, CPR62BC, CPR62BB, CPR73D	331	109	10984	4.566645417001579	0.002607554991299943	0.002607554991299943	0.00662739093665321
GOTERM_MF_DIRECT	GO:0008010~structural constituent of chitin-based larval cuticle	14	3.1746031746031744	2.172116700984099E-5	CG34461, CPR97EB, CPR100A, CPR72EC, CPR11B, CPR49AG, CG13670, CPR92F, CPR49AE, CPR47EF, CCP84AG, CPR62BC, CPR62BB, CPR73D	288	106	9284	4.257599580712789	0.006732590181289688	0.006732590181289688	0.02918144815619028
GOTERM_MF_DIRECT	GO:0042302~structural constituent of cuticle	14	3.1746031746031744	3.9291696371887204E-5	CPR97EB, CPR100A, CPR72EC, CPR11B, CPR49AG, CG13670, CPR92F, CPR49AE, CPR47EF, CRYS, CCP84AG, CPR62BC, CPR62BB, CPR73D	288	112	9284	4.029513888888889	0.012145597164397892	0.0060913508598477994	0.05278092745278906

Annotation Cluster 3	Enrichment Score: 3.6818956354511627
Category	Term	Count	%	PValue	Genes	List Total	Pop Hits	Pop Total	Fold Enrichment	Bonferroni	Benjamini	FDR
GOTERM_BP_DIRECT	GO:0009408~response to heat	13	2.947845804988662	5.068580648279638E-7	HSP27, HSP26, TOTM, HSP70AA, HSP70AB, HSP70BB, HSP70BC, CG4461, TOTA, CG7409, TOTC, HSP23, HSP67BC	321	68	10996	6.5488363569726955	3.5423112245602795E-4	1.180909857506629E-4	7.642242318972592E-4
INTERPRO	IPR002068:Alpha crystallin/Hsp20 domain	6	1.3605442176870748	2.5057623218981244E-5	HSP27, HSP26, CG4461, CG7409, HSP23, HSP67BC	331	13	10984	15.315826167789915	0.014403803833590523	0.007228024082866491	0.036821423667898756
INTERPRO	IPR001436:Alpha crystallin/Heat shock protein	5	1.1337868480725624	8.945344060332435E-5	HSP27, HSP26, CG7409, HSP23, HSP67BC	331	9	10984	18.435716683450824	0.050477316243301096	0.017117095291484863	0.13139118669347472
INTERPRO	IPR008978:HSP20-like chaperone	6	1.3605442176870748	4.10243318548709E-4	HSP27, HSP26, CG4461, CG7409, HSP23, HSP67BC	331	22	10984	9.050260917330403	0.211465892630752	0.05766543637222088	0.6012525872038599
GOTERM_BP_DIRECT	GO:0042026~protein refolding	4	0.9070294784580499	0.002516392636696764	HSP27, HSP26, CG7409, HSP23	321	10	10996	13.702180685358256	0.8281572196357313	0.1107809611024605	3.727676715456507
GOTERM_BP_DIRECT	GO:0061077~chaperone-mediated protein folding	3	0.6802721088435374	0.06908487560201945	HSP27, HSP26, HSP23	321	15	10996	6.851090342679127	1.0	0.7228128555120087	66.01911839046835

Annotation Cluster 4	Enrichment Score: 3.5064397955054805
Category	Term	Count	%	PValue	Genes	List Total	Pop Hits	Pop Total	Fold Enrichment	Bonferroni	Benjamini	FDR
UP_KEYWORDS	Muscle protein	10	2.2675736961451247	1.8825735596664663E-10	MLC2, WUPA, MLC1, TPNC41C, UP, TM2, ACT88F, PRM, MHC, ACT79B	423	16	13921	20.56885342789598	3.558064975983655E-8	1.7790325101962878E-8	2.3377412228242633E-7
UP_KEYWORDS	Myosin	5	1.1337868480725624	0.002247082165168355	MLC2, MYO28B1, MLC1, PRM, MHC	423	19	13921	8.660569864377255	0.3463455371997667	0.03217682399399524	2.7548616268743165
GOTERM_CC_DIRECT	GO:0016459~myosin complex	5	1.1337868480725624	0.0028507383288803546	MLC2, MYO28B1, MLC1, PRM, MHC	293	21	10026	8.147245246221356	0.3483328889721685	0.04191822193960282	3.3516606062587107
UP_KEYWORDS	Motor protein	6	1.3605442176870748	0.010271849769167287	MLC2, MYO28B1, MLC1, NOD, PRM, MHC	423	44	13921	4.487749838813668	0.8579276999220284	0.08873790575043394	12.033428688728343
GOTERM_MF_DIRECT	GO:0003774~motor activity	3	0.6802721088435374	0.23704134399521617	MYO28B1, PRM, MHC	288	30	9284	3.223611111111111	1.0	0.9504638930368363	97.36221976156631

Annotation Cluster 5	Enrichment Score: 2.9992201071128415
Category	Term	Count	%	PValue	Genes	List Total	Pop Hits	Pop Total	Fold Enrichment	Bonferroni	Benjamini	FDR
UP_KEYWORDS	Oxidoreductase	35	7.936507936507936	3.556817795000737E-4	LOX2, CYP4E3, CG9512, GDH, CYP4C3, CG34172, CYP6V1, CYP6A21, SARDH, CG6083, ANTDH, ND-42, CYP4D1, CG9509, CYP9B1, CG7430, L(1)G0156, CYP18A1, CG6034, UQCR-Q, CG31235, CG11796, CG8630, CG13280, PUG, CG11876, CG9531, CYP6A16, CG9547, PHM, CG5321, CG6910, CYP6A13, HGO	423	601	13921	1.91656537764089	0.06502530507544924	0.009559134538274283	0.44078247235176393
GOTERM_BP_DIRECT	GO:0055114~oxidation-reduction process	26	5.895691609977324	4.1277663127198364E-4	LOX2, CYP4E3, CG9512, CYP4C3, CYT-C-P, CYP6V1, CYP6A21, SARDH, CG6083, ANTDH, CYP4D1, CG9509, CYP9B1, CYP18A1, CG6034, CG11796, CG8630, CG13280, PUG, CYP6A16, CG9547, PHM, CG5321, CYP6A13, CG6910, HGO	321	412	10996	2.161751807156035	0.2506809596245163	0.0315569532099077	0.620568459672366
GOTERM_MF_DIRECT	GO:0016491~oxidoreductase activity	14	3.1746031746031744	0.006847987487090403	ND-42, CG9509, CYP9B1, CG9512, CG6034, CG31235, CYP6V1, CG13280, CYP6A21, CG5321, CYP6A13, SARDH, CG6083, ANTDH	288	193	9284	2.338370754173863	0.8819975312968721	0.19241339055015927	8.819458353731779

Annotation Cluster 6	Enrichment Score: 2.7778243398083116
Category	Term	Count	%	PValue	Genes	List Total	Pop Hits	Pop Total	Fold Enrichment	Bonferroni	Benjamini	FDR
GOTERM_MF_DIRECT	GO:0005184~neuropeptide hormone activity	7	1.5873015873015872	4.5358601971250525E-4	PDF, NPLP3, NPF, HUG, DSK, CRZ, PROC	288	33	9284	6.837962962962964	0.13159514862056865	0.03465942611888262	0.6077395131207752
UP_KEYWORDS	Cleavage on pair of basic residues	8	1.8140589569160999	4.933618271129747E-4	PDF, NPF, HUG, DSK, TLD, ATTB, CRZ, ILP3	423	47	13921	5.601730295256777	0.0890510264387937	0.01159085179774677	0.6109238296799657
UP_KEYWORDS	Amidation	6	1.3605442176870748	0.0013804662416894865	PDF, NPLP3, NPF, HUG, DSK, CRZ	423	28	13921	7.0521783181357645	0.22978714942303058	0.023455839691313818	1.700788966706035
UP_KEYWORDS	Neuropeptide	5	1.1337868480725624	0.006354597043155631	NPLP3, NPF, HUG, DSK, CRZ	423	25	13921	6.582033096926714	0.700263367049023	0.061444431444672154	7.610961817240236
GOTERM_BP_DIRECT	GO:0007218~neuropeptide signaling pathway	7	1.5873015873015872	0.006575659093558569	PDF, NPLP3, NPF, HUG, DSK, CRZ, PROC	321	58	10996	4.134278655064991	0.9900637383016179	0.1971587699039007	9.468599681177414

Annotation Cluster 7	Enrichment Score: 2.4912804574660368
Category	Term	Count	%	PValue	Genes	List Total	Pop Hits	Pop Total	Fold Enrichment	Bonferroni	Benjamini	FDR
UP_KEYWORDS	Stress response	11	2.494331065759637	2.9206766436075834E-8	HSP27, HSP68, HSP26, HSP70AA, HSP70AB, HSP70BB, NPF, HSP70BC, CG45076, HSP23, HSP67BC	423	33	13921	10.970055161544524	5.520063704023137E-6	1.3800187826928934E-6	3.6268347369805554E-5
INTERPRO	IPR018181:Heat shock protein 70, conserved site	5	1.1337868480725624	6.306876329306721E-4	HSP68, HSP70AA, HSP70AB, HSP70BB, HSP70BC	331	14	10984	11.851532153646959	0.3060000159248625	0.07045184736580545	0.9229424853308354
GOTERM_BP_DIRECT	GO:0035080~heat shock-mediated polytene chromosome puffing	4	0.9070294784580499	7.833363382342512E-4	HSP70AA, HSP70AB, HSP70BB, HSP70BC	321	7	10996	19.57454383622608	0.42176023108634986	0.05330344718809166	1.1746033365611974
INTERPRO	IPR013126:Heat shock protein 70 family	5	1.1337868480725624	8.397978467764812E-4	HSP68, HSP70AA, HSP70AB, HSP70BB, HSP70BC	331	15	10984	11.061430010070493	0.38519322071045925	0.06713283556315286	1.2271958006691674
GOTERM_BP_DIRECT	GO:0006986~response to unfolded protein	4	0.9070294784580499	0.0018000739173382836	HSP70AA, HSP70AB, HSP70BB, HSP70BC	321	9	10996	15.224645205953616	0.7161716151264146	0.10817877875105875	2.6799824448898946
GOTERM_BP_DIRECT	GO:0031427~response to methotrexate	4	0.9070294784580499	0.004418082388589945	HSP68, HSP70BB, HSP70BC, HSP67BC	321	12	10996	11.418483904465214	0.9547286908161497	0.15797787537243935	6.458242715839835
GOTERM_BP_DIRECT	GO:0001666~response to hypoxia	5	1.1337868480725624	0.016410592735081823	HSP70AA, HSP70AB, HSP70BB, HSP70BC, HSP23	321	34	10996	5.037566428440535	0.9999905185177396	0.3484340521236985	22.079979701033224
KEGG_PATHWAY	dme04144:Endocytosis	7	1.5873015873015872	0.24557513677081788	HSP68, USP8, HSP70AA, HSP70AB, HSP70BB, HSP70BC, AP-2SIGMA	99	118	2737	1.6400445129258687	0.9999999996229217	0.68082952665583	94.88581429388836
KEGG_PATHWAY	dme04141:Protein processing in endoplasmic reticulum	6	1.3605442176870748	0.47400332952881236	HSP68, HSP70AA, HSP70AB, HSP70BB, HSP70BC, CG10973	99	126	2737	1.3164983164983166	1.0	0.8617619417425091	99.88618331697009
KEGG_PATHWAY	dme03040:Spliceosome	5	1.1337868480725624	0.6639882564236307	HSP68, HSP70AA, HSP70AB, HSP70BB, HSP70BC	99	125	2737	1.1058585858585859	1.0	0.9333921240429343	99.99899362469517

Annotation Cluster 8	Enrichment Score: 2.4573772170695465
Category	Term	Count	%	PValue	Genes	List Total	Pop Hits	Pop Total	Fold Enrichment	Bonferroni	Benjamini	FDR
GOTERM_BP_DIRECT	GO:0045214~sarcomere organization	8	1.8140589569160999	1.8928947125486843E-5	WUPA, UNC-89, BT, UP, MLP84B, SLS, ACTN, MHC	321	30	10996	9.13478712357217	0.01314430831427893	0.002642793510257424	0.02853675500700259
GOTERM_MF_DIRECT	GO:0008307~structural constituent of muscle	4	0.9070294784580499	0.010093835418222173	BT, MLP84B, SLS, MHC	288	15	9284	8.596296296296295	0.9573672882318173	0.2154951873781049	12.743118444448754
GOTERM_BP_DIRECT	GO:0007517~muscle organ development	5	1.1337868480725624	0.2221701311893057	WUPA, DR, MLP84B, SLS, MHC	321	83	10996	2.0635814285178093	1.0	0.9515859410926913	97.73646305150454

Annotation Cluster 9	Enrichment Score: 2.37934398886984
Category	Term	Count	%	PValue	Genes	List Total	Pop Hits	Pop Total	Fold Enrichment	Bonferroni	Benjamini	FDR
GOTERM_BP_DIRECT	GO:0055114~oxidation-reduction process	26	5.895691609977324	4.1277663127198364E-4	LOX2, CYP4E3, CG9512, CYP4C3, CYT-C-P, CYP6V1, CYP6A21, SARDH, CG6083, ANTDH, CYP4D1, CG9509, CYP9B1, CYP18A1, CG6034, CG11796, CG8630, CG13280, PUG, CYP6A16, CG9547, PHM, CG5321, CYP6A13, CG6910, HGO	321	412	10996	2.161751807156035	0.2506809596245163	0.0315569532099077	0.620568459672366
INTERPRO	IPR017972:Cytochrome P450, conserved site	10	2.2675736961451247	6.347419898276575E-4	CYP6V1, CYP4D1, CYP6A16, CYP4E3, PHM, CYP9B1, CYP6A21, CYP6A13, CYP4C3, CYP18A1	331	80	10984	4.148036253776436	0.3076282802277104	0.05943267641866057	0.9288498288912539
UP_KEYWORDS	Monooxygenase	11	2.494331065759637	0.001126390299232879	CYP6V1, CYP4D1, CYP6A16, CYP4E3, PHM, CYP9B1, CYP6A21, CYP6A13, CYP4C3, CYP18A1	423	103	13921	3.5146778672909638	0.19185012922035394	0.021075516120037885	1.3897686260932463
INTERPRO	IPR001128:Cytochrome P450	10	2.2675736961451247	0.0012682325719156587	CYP6V1, CYP4D1, CYP6A16, CYP4E3, PHM, CYP9B1, CYP6A21, CYP6A13, CYP4C3, CYP18A1	331	88	10984	3.770942048887668	0.5203855317779464	0.0708427336831976	1.847846460140834
GOTERM_MF_DIRECT	GO:0016705~oxidoreductase activity, acting on paired donors, with incorporation or reduction of molecular oxygen	10	2.2675736961451247	0.001936941019975627	CYP6V1, CYP4D1, CYP6A16, CYP4E3, PHM, CYP9B1, CYP6A21, CYP6A13, CYP4C3, CYP18A1	288	91	9284	3.5424297924297927	0.4528174524577855	0.11360673525791531	2.571432449613398
GOTERM_CC_DIRECT	GO:0031090~organelle membrane	9	2.0408163265306123	0.0020430291100944848	CYP6V1, CYP4D1, CYP4E3, PHM, CYP9B1, CYP6A21, CYP6A13, CYP4C3, CYP18A1	293	79	10026	3.898302155786927	0.26417859146236566	0.033510955552345845	2.4126307221309484
GOTERM_MF_DIRECT	GO:0020037~heme binding	12	2.7210884353741496	0.0025545439983960918	CYP6V1, CYT-C-P, CYP4D1, HR51, CYP6A16, CYP4E3, PHM, CYP9B1, CYP6A21, CYP6A13, CYP4C3, CYP18A1	288	132	9284	2.9305555555555554	0.5486353188356903	0.10742073014310904	3.378388158980572
UP_KEYWORDS	Microsome	9	2.0408163265306123	0.002655424270229174	CYP6V1, CYP4D1, CYP4E3, PHM, CYP9B1, CYP6A21, CYP6A13, CYP4C3, CYP18A1	423	79	13921	3.749259359008888	0.3950096157167463	0.035259290147879985	3.24792072113147
UP_KEYWORDS	Heme	11	2.494331065759637	0.002752897847902033	CYP6V1, CYT-C-P, CYP4D1, CYP6A16, CYP4E3, PHM, CYP9B1, CYP6A21, CYP6A13, CYP4C3, CYP18A1	423	116	13921	3.120791554577321	0.4060826873027046	0.03413803166479734	3.365276382644955
UP_KEYWORDS	Iron	14	3.1746031746031744	0.005059756780307032	CYP4D1, CANA1, CYP4E3, CYP9B1, CYP4C3, CYP18A1, CG11796, CYT-C-P, CYP6V1, CYP6A16, PHM, CYP6A21, CYP6A13, HGO	423	189	13921	2.4377900358987827	0.6166172842582966	0.05483464141981098	6.104760387280306
GOTERM_MF_DIRECT	GO:0004497~monooxygenase activity	9	2.0408163265306123	0.00571953747862435	CYP6V1, CYP4D1, CYP6A16, CYP4E3, PHM, CYP9B1, CYP6A21, CYP6A13, CYP4C3	288	88	9284	3.2968749999999996	0.8320153250568372	0.19987340136429377	7.417542403680311
GOTERM_MF_DIRECT	GO:0005506~iron ion binding	12	2.7210884353741496	0.006113433735574803	CYP6V1, CG8630, CYP4D1, CYP6A16, CYP4E3, PHM, CYP9B1, CYP6A21, CYP6A13, CG6910, CYP4C3, CYP18A1	288	148	9284	2.6137387387387387	0.8514915403865831	0.19095560247578025	7.9091453174853115
UP_SEQ_FEATURE	metal ion-binding site:Iron (heme axial ligand)	10	2.2675736961451247	0.008150594038278357	CYP6V1, CYT-C-P, CYP4D1, CYP4E3, PHM, CYP9B1, CYP6A21, CYP6A13, CYP4C3, CYP18A1	116	96	3113	2.795438218390805	0.9760527127273481	0.711761421038049	10.981479655924964
INTERPRO	IPR002401:Cytochrome P450, E-class, group I	8	1.8140589569160999	0.00824494369814854	CYP6V1, CYP4D1, CYP4E3, PHM, CYP6A21, CYP6A13, CYP4C3, CYP18A1	331	77	10984	3.4477184446972964	0.9917175063993268	0.27354161548127376	11.456840579470517
COG_ONTOLOGY	Secondary metabolites biosynthesis, transport, and catabolism	9	2.0408163265306123	0.018002632904247903	CYP6V1, CYP4D1, CYP4E3, PHM, CYP9B1, CYP6A21, CYP6A13, CYP4C3, CYP18A1	48	91	1239	2.5528846153846154	0.29189747335933947	0.29189747335933947	12.728721413087673
UP_KEYWORDS	Endoplasmic reticulum	11	2.494331065759637	0.053842308594077015	CYP6V1, CYP4D1, CNI, CYP4E3, PHM, CYP9B1, CYP6A21, CYP6A13, CYP4C3, SERCA, CYP18A1	423	184	13921	1.9674555452770068	0.999971351224616	0.30281427718701315	49.705550831863086
GOTERM_CC_DIRECT	GO:0005789~endoplasmic reticulum membrane	11	2.494331065759637	0.11161210072911051	CYP6V1, CG8630, CYP4D1, CNI, CYP4E3, PHM, CYP9B1, CYP6A21, CYP6A13, CYP4C3, CYP18A1	293	221	10026	1.7031797754544191	0.9999999804838046	0.6937850824620501	75.6650667428174

Annotation Cluster 10	Enrichment Score: 2.3316194112983855
Category	Term	Count	%	PValue	Genes	List Total	Pop Hits	Pop Total	Fold Enrichment	Bonferroni	Benjamini	FDR
GOTERM_BP_DIRECT	GO:0007623~circadian rhythm	13	2.947845804988662	1.758440720561262E-7	PDP1, TIM, CG17279, CG16820, PDF, NPF, TO, PER, CLK, CG7988, CG7079, ILP3, VRI	321	62	10996	7.182594714099085	1.2290746345045012E-4	6.145562012183081E-5	2.6513263445826496E-4
UP_KEYWORDS	Biological rhythms	6	1.3605442176870748	1.544878105338075E-4	TIM, PDF, TO, CLK, PER, CG7988	423	18	13921	10.970055161544524	0.028778238203085338	0.00485491856721787	0.19167063772291826
KEGG_PATHWAY	dme04711:Circadian rhythm - fly	5	1.1337868480725624	1.6972214535461257E-4	PDP1, TIM, VRI, CLK, PER	99	9	2737	15.359147025813693	0.012984676493847713	0.012984676493847713	0.1789218214640398
GOTERM_BP_DIRECT	GO:0007622~rhythmic behavior	5	1.1337868480725624	4.0871994695701496E-4	TIM, VRI, TO, CLK, PER	321	13	10996	13.175173735921401	0.24855228283153563	0.0350888027363796	0.6144871737456481
GOTERM_BP_DIRECT	GO:0045475~locomotor rhythm	8	1.8140589569160999	0.0024799413461720943	TIM, VRI, PDF, HR51, NPF, CLK, PER, ILP3	321	64	10996	4.281931464174455	0.8237112537226514	0.12498141751498049	3.6746180526795125
GOTERM_BP_DIRECT	GO:0008062~eclosion rhythm	4	0.9070294784580499	0.00338595439904478	TIM, PDF, CLK, PER	321	11	10996	12.456527895780232	0.9065938510136724	0.13017106388346478	4.985353835825823
GOTERM_BP_DIRECT	GO:0007617~mating behavior	4	0.9070294784580499	0.005620891121057562	TIM, PDF, TO, PER	321	13	10996	10.54013898873712	0.9805534712594614	0.18728353677825482	8.147794899809213
GOTERM_BP_DIRECT	GO:0009649~entrainment of circadian clock	3	0.6802721088435374	0.04596415508562674	TIM, CLK, PER	321	12	10996	8.56386292834891	0.9999999999999948	0.6422198459441162	50.80942195771083
GOTERM_BP_DIRECT	GO:0045187~regulation of circadian sleep/wake cycle, sleep	3	0.6802721088435374	0.08617574039327155	TIM, CLK, PER	321	17	10996	6.045079714128642	1.0	0.7689047281203703	74.30207462088775
GOTERM_MF_DIRECT	GO:0008134~transcription factor binding	4	0.9070294784580499	0.5072254976013287	TIM, CLK, PER, TBP	288	87	9284	1.482120051085568	1.0	0.998142366778142	99.99258170368638
GOTERM_BP_DIRECT	GO:0000122~negative regulation of transcription from RNA polymerase II promoter	5	1.1337868480725624	0.634424843489006	TIM, NET, LZ, CLK, PER	321	149	10996	1.149511802462941	1.0	0.9997195114970697	99.99997425577423
GOTERM_MF_DIRECT	GO:0046982~protein heterodimerization activity	5	1.1337868480725624	0.9248419440937131	TIM, VRI, CLK, PER, GBETA76C	288	227	9284	0.7100465002447381	1.0	0.9999999829493064	99.99999999999993

Annotation Cluster 11	Enrichment Score: 2.0319930741602183
Category	Term	Count	%	PValue	Genes	List Total	Pop Hits	Pop Total	Fold Enrichment	Bonferroni	Benjamini	FDR
SMART	SM00054:EFh	9	2.0408163265306123	3.2290835194838814E-4	MLC2, CBP53E, CG31475, TPNC25D, TPNC41C, CG31345, CG10126, ACTN, SCP1	130	71	5218	5.087973997833153	0.03303008123024287	0.03303008123024287	0.36045961853302666
INTERPRO	IPR018247:EF-Hand 1, calcium-binding site	10	2.2675736961451247	9.073554235547663E-4	MLC2, ZASP52, CBP53E, CG31475, TPNC25D, TPNC41C, CG31345, CG10126, ACTN, SCP1	331	84	10984	3.9505107178823193	0.40879785319340267	0.056727151781577057	1.3253051631979873
GOTERM_MF_DIRECT	GO:0005509~calcium ion binding	16	3.6281179138321997	0.0021712177453420845	MLC2, CBP53E, CAD89D, CG31475, MLC1, UP, CG10126, RYR, ACTN, TPNC25D, EYS, CRYS, CG31345, TPNC41C, TLD, SCP1	288	210	9284	2.456084656084656	0.49134375164047317	0.10654901775105441	2.878268250365923
INTERPRO	IPR002048:EF-hand domain	10	2.2675736961451247	0.002172171466591718	MLC2, CBP53E, CG31475, TPNC25D, MLC1, TPNC41C, CG31345, CG10126, ACTN, SCP1	331	95	10984	3.493083161074893	0.716077855263751	0.10815200057137431	3.145429709855241
INTERPRO	IPR011992:EF-hand-like domain	11	2.494331065759637	0.0025477310797152155	MLC2, CBP53E, CG31475, TPNC25D, MLC1, TPNC41C, CG31345, CG10126, RYR, ACTN, SCP1	331	116	10984	3.1467861235545374	0.7716826240612402	0.11581139484406722	3.679821153455143
UP_KEYWORDS	Calcium	10	2.2675736961451247	0.009189630042439492	MLC2, CBP53E, CAD89D, WUPA, EYS, TPNC41C, RYR, TLD, ACTN, SERCA	423	117	13921	2.8128346568062876	0.8253322651881083	0.08354607743563025	10.831511851614895
UP_SEQ_FEATURE	domain:EF-hand 2	5	1.1337868480725624	0.01607504468273606	MLC2, CBP53E, MLC1, TPNC41C, ACTN	116	27	3113	4.9696679438058755	0.9993824659136471	0.8423604328706833	20.57397551853064
UP_SEQ_FEATURE	domain:EF-hand 1	5	1.1337868480725624	0.01607504468273606	MLC2, CBP53E, MLC1, TPNC41C, ACTN	116	27	3113	4.9696679438058755	0.9993824659136471	0.8423604328706833	20.57397551853064
UP_SEQ_FEATURE	domain:EF-hand 3	3	0.6802721088435374	0.14110787496774188	MLC2, CBP53E, TPNC41C	116	18	3113	4.472701149425287	1.0	0.9995503339269457	88.49157797384413
UP_SEQ_FEATURE	calcium-binding region:1	3	0.6802721088435374	0.19415893007344404	CBP53E, TPNC41C, ACTN	116	22	3113	3.6594827586206895	1.0	0.9999469149135645	95.3500714096137
UP_SEQ_FEATURE	calcium-binding region:2	3	0.6802721088435374	0.19415893007344404	CBP53E, TPNC41C, ACTN	116	22	3113	3.6594827586206895	1.0	0.9999469149135645	95.3500714096137

Annotation Cluster 12	Enrichment Score: 1.7718532333829877
Category	Term	Count	%	PValue	Genes	List Total	Pop Hits	Pop Total	Fold Enrichment	Bonferroni	Benjamini	FDR
GOTERM_BP_DIRECT	GO:0006032~chitin catabolic process	7	1.5873015873015872	6.428171217970233E-5	CHT5, CDA5, CHT2, CDA4, IDGF1, SERP, CHT7	321	25	10996	9.59152647975078	0.04393976544403411	0.007461087039544734	0.09687839464231907
GOTERM_MF_DIRECT	GO:0004568~chitinase activity	7	1.5873015873015872	1.1310714587836826E-4	CHT5, CDA5, CHT2, CDA4, IDGF1, SERP, CHT7	288	26	9284	8.678952991452991	0.03456674729512588	0.011657621138232765	0.15186824084248984
GOTERM_BP_DIRECT	GO:0005975~carbohydrate metabolic process	12	2.7210884353741496	2.5261295315282196E-4	CHT5, KDN, CDA5, TOBI, CHT2, CDA4, IDGF1, GLYP, CG7997, SERP, CHT7, TALDO	321	106	10996	3.8779756656674302	0.16188399790589048	0.024912817852210223	0.3802065106847441
GOTERM_BP_DIRECT	GO:0018990~ecdysis, chitin-based cuticle	5	1.1337868480725624	0.002846451113942065	CHT5, CHT2, HUG, IDGF1, CHT7	321	21	10996	8.156059931760867	0.8636467674186128	0.11708968660885366	4.206870676272811
INTERPRO	IPR017853:Glycoside hydrolase, superfamily	7	1.5873015873015872	0.005390689789082353	CHT5, TOBI, CHT2, IDGF1, CG9485, CG7997, CHT7	331	54	10984	4.301667226138525	0.9562670073009515	0.20032237855132318	7.636885224292122
SMART	SM00636:Glyco_18	4	0.9070294784580499	0.007788717675325097	CHT5, CHT2, IDGF1, CHT7	130	17	5218	9.444343891402715	0.5565621617186465	0.18396612564659842	8.371577619094683
INTERPRO	IPR002509:Polysaccharide deacetylase	3	0.6802721088435374	0.012459833129183626	CDA5, CDA4, SERP	331	6	10984	16.592145015105743	0.9992965856033874	0.33189446521559685	16.829323153719788
INTERPRO	IPR001223:Glycoside hydrolase, family 18, catalytic domain	4	0.9070294784580499	0.0133639753292933	CHT5, CHT2, IDGF1, CHT7	331	17	10984	7.808068242402702	0.9995861100828528	0.3363466244166823	17.9414807195169
INTERPRO	IPR011583:Chitinase II	4	0.9070294784580499	0.0133639753292933	CHT5, CHT2, IDGF1, CHT7	331	17	10984	7.808068242402702	0.9995861100828528	0.3363466244166823	17.9414807195169
INTERPRO	IPR001579:Glycoside hydrolase, chitinase active site	3	0.6802721088435374	0.0281740690199404	CHT5, CHT2, CHT7	331	9	10984	11.061430010070493	0.9999999348774069	0.49815205101962845	34.29700141982445
SMART	SM00494:ChtBD2	6	1.3605442176870748	0.04499615406479268	CHT5, CDA5, CDA4, OBST-B, SERP, CHT7	130	79	5218	3.0484907497565725	0.991672156839435	0.4954162969620265	40.23707262036575
INTERPRO	IPR013781:Glycoside hydrolase, catalytic domain	5	1.1337868480725624	0.05193065746489073	CHT5, CHT2, IDGF1, CG9485, CHT7	331	47	10984	3.530243620235264	0.999999999999961	0.655173463606475	54.331802145687256
INTERPRO	IPR011330:Glycoside hydrolase/deacetylase, beta/alpha-barrel	3	0.6802721088435374	0.07304574276052432	CDA5, CDA4, SERP	331	15	10984	6.636858006042297	1.0	0.7465097984055955	67.20190650045804
GOTERM_MF_DIRECT	GO:0008061~chitin binding	8	1.8140589569160999	0.08649615805648474	CHT5, CDA5, CHT2, CDA4, IDGF1, OBST-B, SERP, CHT7	288	123	9284	2.096657633242999	0.9999999999993961	0.7380976407042735	70.34556648841843
GOTERM_BP_DIRECT	GO:0042060~wound healing	5	1.1337868480725624	0.09677305138605902	CHT5, LZ, CHT2, IDGF1, CHT7	321	60	10996	2.854620976116303	1.0	0.7942317772315428	78.44652273389613
UP_KEYWORDS	Glycosidase	6	1.3605442176870748	0.19209151908202524	CHT5, TOBI, CHT2, CG9485, CG7997, CHT7	423	101	13921	1.955059335720806	1.0	0.6170608649698683	92.92636392215165
INTERPRO	IPR002557:Chitin binding domain	6	1.3605442176870748	0.2136814325078863	CHT5, CDA5, CDA4, OBST-B, SERP, CHT7	331	106	10984	1.878356039445933	1.0	0.9636293405467262	97.07861685408595
KEGG_PATHWAY	dme00520:Amino sugar and nucleotide sugar metabolism	3	0.6802721088435374	0.4838466986905986	CHT5, CHT2, CHT7	99	45	2737	1.8430976430976431	1.0	0.8589467487547686	99.90675063806843
GOTERM_BP_DIRECT	GO:0006030~chitin metabolic process	4	0.9070294784580499	0.5535797170340868	CDA5, CDA4, OBST-B, SERP	321	99	10996	1.3840586550866922	1.0	0.9992040262948442	99.99947648033245

Annotation Cluster 13	Enrichment Score: 1.5593633678502938
Category	Term	Count	%	PValue	Genes	List Total	Pop Hits	Pop Total	Fold Enrichment	Bonferroni	Benjamini	FDR
UP_KEYWORDS	Oxidation	4	0.9070294784580499	5.167092945460954E-4	ACT87E, ACT88F, ACT57B, ACT79B	423	6	13921	21.940110323089048	0.09306391123512248	0.010795010656354131	0.6397494854674002
INTERPRO	IPR004001:Actin, conserved site	4	0.9070294784580499	8.596812296265334E-4	ACT87E, ACT88F, ACT57B, ACT79B	331	7	10984	18.962451445835132	0.39223653476684195	0.060348473339998376	1.2560805479654547
INTERPRO	IPR020902:Actin/actin-like conserved site	4	0.9070294784580499	0.002755754456734636	ACT87E, ACT88F, ACT57B, ACT79B	331	10	10984	13.273716012084591	0.7976556629024796	0.1156536476923623	3.97463802047614
SMART	SM00268:ACTIN	4	0.9070294784580499	0.0054029326085217886	ACT87E, ACT88F, ACT57B, ACT79B	130	15	5218	10.703589743589744	0.43074594382354436	0.17122741242664485	5.877723605449758
INTERPRO	IPR004000:Actin-related protein	4	0.9070294784580499	0.00934729022346366	ACT87E, ACT88F, ACT57B, ACT79B	331	15	10984	8.849144008056395	0.9956498020099139	0.2881199636206788	12.892333150399871
KEGG_PATHWAY	dme04745:Phototransduction - fly	5	1.1337868480725624	0.010961729199056676	ACT87E, ACT88F, ACT57B, GBETA76C, ACT79B	99	25	2737	5.529292929292929	0.5720347921389306	0.24640821660392143	10.978409884662721
GOTERM_CC_DIRECT	GO:0005884~actin filament	4	0.9070294784580499	0.04270863617298241	ACT87E, ACT88F, ACT57B, ACT79B	293	27	10026	5.0693970420932875	0.9985657622685534	0.395663883420013	40.620630029668995
GOTERM_BP_DIRECT	GO:0007010~cytoskeleton organization	4	0.9070294784580499	0.08622350058147697	ACT87E, ACT88F, ACT57B, ACT79B	321	36	10996	3.806161301488404	1.0	0.7612794776951604	74.3223177498186
UP_SEQ_FEATURE	propeptide:Removed in mature form	4	0.9070294784580499	0.09688319519118271	ACT87E, ACT88F, ACT57B, ACT79B	116	30	3113	3.57816091954023	1.0	0.9995669498560081	76.50625138333339
UP_KEYWORDS	Acetylation	6	1.3605442176870748	0.15180079859768053	MLC2, WUPA, ACT87E, ACT88F, ACT57B, ACT79B	423	93	13921	2.123236482879585	0.9999999999999694	0.549712775396896	87.05502163071208
KEGG_PATHWAY	dme04391:Hippo signaling pathway - fly	5	1.1337868480725624	0.1518374236921824	ACT87E, ACT88F, ACT57B, MYC, ACT79B	99	58	2737	2.3833159177986762	0.9999968890633549	0.6229697087214532	82.4040646400104
GOTERM_MF_DIRECT	GO:0005200~structural constituent of cytoskeleton	4	0.9070294784580499	0.19255443444442047	ACT87E, ACT88F, ACT57B, ACT79B	288	49	9284	2.631519274376417	1.0	0.9300981166904909	94.35143419545791
KEGG_PATHWAY	dme04145:Phagosome	5	1.1337868480725624	0.2802850669706388	ACT87E, ACT88F, ACT57B, VHA68-1, ACT79B	99	75	2737	1.8430976430976431	0.9999999999899687	0.7005976415097867	96.88857657253868
UP_KEYWORDS	Cytoskeleton	6	1.3605442176870748	0.49056673108086646	ZASP52, ACT87E, NOD, ACT88F, ACT57B, ACT79B	423	152	13921	1.2990854796565883	1.0	0.8805118035494913	99.97694998420066

Annotation Cluster 14	Enrichment Score: 1.547954011827433
Category	Term	Count	%	PValue	Genes	List Total	Pop Hits	Pop Total	Fold Enrichment	Bonferroni	Benjamini	FDR
UP_KEYWORDS	Purine biosynthesis	4	0.9070294784580499	0.0020273143014516624	PUG, ADSL, ADE3, ADE5	423	9	13921	14.626740215392699	0.3185628969378065	0.031457205106868114	2.488544178586871
GOTERM_BP_DIRECT	GO:0006189~'de novo' IMP biosynthetic process	3	0.6802721088435374	0.011719231753667542	ADSL, ADE3, ADE5	321	6	10996	17.12772585669782	0.9997361478922245	0.28079214381873796	16.284243489993766
KEGG_PATHWAY	dme00230:Purine metabolism	3	0.6802721088435374	0.9556915315605072	ADSL, ADE3, ADE5	99	132	2737	0.6283287419651056	1.0	0.9993052918563239	99.99999999999947

Annotation Cluster 15	Enrichment Score: 1.5320453627291235
Category	Term	Count	%	PValue	Genes	List Total	Pop Hits	Pop Total	Fold Enrichment	Bonferroni	Benjamini	FDR
GOTERM_BP_DIRECT	GO:0009617~response to bacterium	7	1.5873015873015872	0.0020348979384903357	DIEDEL, TOTM, TOTA, PHK-3, TOTC, ATTC, DRS	321	46	10996	5.212786130299335	0.7592130685134024	0.11188458257178302	3.0246053688375185
UP_KEYWORDS	Immunity	8	1.8140589569160999	0.005186671991794982	DIEDEL, PGRP-SB1, PGRP-SD, TOTM, TOTA, TOTC, ATTB, ATTC	423	70	13921	3.7611617696724076	0.6257502894781006	0.05313786710489343	6.253384191860167
UP_KEYWORDS	Innate immunity	7	1.5873015873015872	0.01371633535481611	PGRP-SB1, PGRP-SD, TOTM, TOTA, TOTC, ATTB, ATTC	423	65	13921	3.544171667575923	0.9264897683133364	0.10728923154737391	15.760437584658849
INTERPRO	IPR010825:Stress-inducible humoral factor Turandot	3	0.6802721088435374	0.02235154202055087	TOTM, TOTA, TOTC	331	8	10984	12.444108761329305	0.9999979308372416	0.4483964790174223	28.2679472870062
GOTERM_BP_DIRECT	GO:0045087~innate immune response	8	1.8140589569160999	0.03190852160858747	PGRP-SB1, PGRP-SD, TOTM, TOTA, TOTC, ATTB, ATTC, DRS	321	104	10996	2.63503474718428	0.9999999998569257	0.5302659348360264	38.67306983840408
UP_KEYWORDS	Antimicrobial	4	0.9070294784580499	0.034921128235004456	TOTA, ATTB, ATTC, DRS	423	24	13921	5.485027580772262	0.9987911548328152	0.2133184717318065	35.686200514733336
UP_KEYWORDS	Antibiotic	3	0.6802721088435374	0.06560238280153471	TOTA, ATTB, ATTC	423	14	13921	7.0521783181357645	0.9999973053925229	0.34784646854984436	56.9404909884056
GOTERM_BP_DIRECT	GO:0034605~cellular response to heat	3	0.6802721088435374	0.06908487560201945	TOTM, TOTA, TOTC	321	15	10996	6.851090342679127	1.0	0.7228128555120087	66.01911839046835
GOTERM_BP_DIRECT	GO:0006952~defense response	4	0.9070294784580499	0.07533424027704763	CG10433, ATTB, ATTC, DRS	321	34	10996	4.030053142752428	1.0	0.7455608351463818	69.3007615959674
GOTERM_BP_DIRECT	GO:0050830~defense response to Gram-positive bacterium	5	1.1337868480725624	0.07957751183467975	PGRP-SD, TOTM, LISTERICIN, ATTB, ATTC	321	56	10996	3.058522474410325	1.0	0.7484383331111113	71.35762649776656
GOTERM_BP_DIRECT	GO:0019731~antibacterial humoral response	3	0.6802721088435374	0.14336518428113337	ATTB, ATTC, DRS	321	23	10996	4.468102397399431	1.0	0.885056562132604	90.301335001847

Annotation Cluster 16	Enrichment Score: 1.3978414160866868
Category	Term	Count	%	PValue	Genes	List Total	Pop Hits	Pop Total	Fold Enrichment	Bonferroni	Benjamini	FDR
UP_KEYWORDS	Purine biosynthesis	4	0.9070294784580499	0.0020273143014516624	PUG, ADSL, ADE3, ADE5	423	9	13921	14.626740215392699	0.3185628969378065	0.031457205106868114	2.488544178586871
UP_KEYWORDS	Multifunctional enzyme	3	0.6802721088435374	0.07421933053827455	PUG, ADE3, ADE5	423	15	13921	6.582033096926714	0.9999995322298761	0.3751043530516551	61.62002610246877
UP_KEYWORDS	Ligase	6	1.3605442176870748	0.4256352961474436	CG2681, PUG, ADE3, GCLM, ADE5, CG7910	423	141	13921	1.4004325738141943	1.0	0.8512415930644935	99.8977546358783

Annotation Cluster 17	Enrichment Score: 1.3794944628905943
Category	Term	Count	%	PValue	Genes	List Total	Pop Hits	Pop Total	Fold Enrichment	Bonferroni	Benjamini	FDR
GOTERM_BP_DIRECT	GO:0007605~sensory perception of sound	7	1.5873015873015872	0.008391371027137494	CG14636, IR75A, KTUB, ATPALPHA, NRV3, NRV2, RDGA	321	61	10996	3.9309534753076956	0.9972339002273911	0.2259360128375557	11.931624075059288
GOTERM_CC_DIRECT	GO:0005890~sodium:potassium-exchanging ATPase complex	3	0.6802721088435374	0.016113768257606027	ATPALPHA, NRV3, NRV2	293	7	10026	14.66504144319844	0.9125555036504089	0.19870236325919333	17.633578626529157
GOTERM_MF_DIRECT	GO:0005391~sodium:potassium-exchanging ATPase activity	3	0.6802721088435374	0.023574171976998397	ATPALPHA, NRV3, NRV2	288	8	9284	12.088541666666666	0.9994004720296574	0.37105438932103885	27.424652899490553
GOTERM_BP_DIRECT	GO:0006813~potassium ion transport	3	0.6802721088435374	0.1848079576084677	ATPALPHA, NRV3, NRV2	321	27	10996	3.8061613014884044	1.0	0.9289917001412724	95.40800808348382
GOTERM_BP_DIRECT	GO:0006814~sodium ion transport	4	0.9070294784580499	0.21495152624900352	ATPALPHA, NRV3, NRV2, NAAT1	321	55	10996	2.4913055791560463	1.0	0.9485839320932057	97.3981797099594

Annotation Cluster 18	Enrichment Score: 1.2843400467011579
Category	Term	Count	%	PValue	Genes	List Total	Pop Hits	Pop Total	Fold Enrichment	Bonferroni	Benjamini	FDR
INTERPRO	IPR000175:Sodium:neurotransmitter symporter	4	0.9070294784580499	0.027108168818316018	CG4476, CG13796, GAT, NAAT1	331	22	10984	6.033507278220268	0.9999998771490735	0.4993454206649831	33.22988058180529
GOTERM_MF_DIRECT	GO:0005328~neurotransmitter:sodium symporter activity	4	0.9070294784580499	0.029149749573020172	CG4476, CG13796, GAT, NAAT1	288	22	9284	5.861111111111111	0.9998989936194373	0.4179481222467367	32.79947248799857
GOTERM_BP_DIRECT	GO:0006836~neurotransmitter transport	4	0.9070294784580499	0.031441662770185855	CG4476, CG13796, GAT, NAAT1	321	24	10996	5.709241952232607	0.9999999997995884	0.5369972737972708	38.225633551889885
GOTERM_MF_DIRECT	GO:0005326~neurotransmitter transporter activity	3	0.6802721088435374	0.11542997403953091	CG4476, CG13796, NAAT1	288	19	9284	5.089912280701754	1.0	0.8234013911775907	80.75695722346134
UP_KEYWORDS	Symport	3	0.6802721088435374	0.13205068351692364	CG4476, GAT, NAAT1	423	21	13921	4.70145221209051	0.9999999999976262	0.5149097232476982	82.77196050144953

Annotation Cluster 19	Enrichment Score: 1.2423883236951847
Category	Term	Count	%	PValue	Genes	List Total	Pop Hits	Pop Total	Fold Enrichment	Bonferroni	Benjamini	FDR
INTERPRO	IPR013818:Lipase, N-terminal	5	1.1337868480725624	0.016472116496364986	CG10357, CG5966, CG4267, CG18641, YP1	331	33	10984	5.027922731850225	0.9999333982069125	0.3817355205988482	21.659886745930677
INTERPRO	IPR000734:Lipase	5	1.1337868480725624	0.016472116496364986	CG10357, CG5966, CG4267, CG18641, YP1	331	33	10984	5.027922731850225	0.9999333982069125	0.3817355205988482	21.659886745930677
GOTERM_MF_DIRECT	GO:0052689~carboxylic ester hydrolase activity	7	1.5873015873015872	0.020779090977370636	CG4757, CG10357, CG5966, CG4267, JHEDUP, CG18641, YP1	288	70	9284	3.223611111111111	0.9985415520288966	0.3529675488992726	24.58299015466666
GOTERM_MF_DIRECT	GO:0016298~lipase activity	3	0.6802721088435374	0.23704134399521617	CG10357, CG5966, CG4267	288	30	9284	3.223611111111111	1.0	0.9504638930368363	97.36221976156631
GOTERM_BP_DIRECT	GO:0016042~lipid catabolic process	3	0.6802721088435374	0.45931319925562175	CG10357, CG5966, CG4267	321	53	10996	1.9389878328337151	1.0	0.9969979345450664	99.99059349894335

Annotation Cluster 20	Enrichment Score: 1.2150031614864019
Category	Term	Count	%	PValue	Genes	List Total	Pop Hits	Pop Total	Fold Enrichment	Bonferroni	Benjamini	FDR
GOTERM_BP_DIRECT	GO:0015992~proton transport	5	1.1337868480725624	0.0063428330828859125	ATPSYNC, ATPSYNGAMMA, BLW, VHA68-1, SUN	321	26	10996	6.587586867960701	0.9882952552696004	0.19939537005270236	9.148158357024494
GOTERM_CC_DIRECT	GO:0000275~mitochondrial proton-transporting ATP synthase complex, catalytic core F(1)	3	0.6802721088435374	0.016113768257606027	ATPSYNGAMMA, BLW, SUN	293	7	10026	14.66504144319844	0.9125555036504089	0.19870236325919333	17.633578626529157
GOTERM_MF_DIRECT	GO:0046933~proton-transporting ATP synthase activity, rotational mechanism	4	0.9070294784580499	0.016908107699592913	ATPSYNC, ATPSYNGAMMA, BLW, SUN	288	18	9284	7.16358024691358	0.9950252691703657	0.31532646385075325	20.477194680264333
GOTERM_BP_DIRECT	GO:0015986~ATP synthesis coupled proton transport	4	0.9070294784580499	0.031441662770185855	ATPSYNC, ATPSYNGAMMA, BLW, SUN	321	24	10996	5.709241952232607	0.9999999997995884	0.5369972737972708	38.225633551889885
UP_KEYWORDS	Hydrogen ion transport	4	0.9070294784580499	0.08293562174755122	ATPSYNC, ATPSYNGAMMA, BLW, VHA68-1	423	34	13921	3.871784174662773	0.9999999217351412	0.4003139274009767	65.87372695103927
UP_KEYWORDS	Ion transport	11	2.494331065759637	0.1015915209611119	CG8177, ATPALPHA, NRV2, RYR, ATPSYNC, ATPSYNGAMMA, BLW, NAAT1, VHA68-1, CG9194, SERCA	423	208	13921	1.7404414438988907	0.9999999983909996	0.4392636024153628	73.56082649557429
GOTERM_BP_DIRECT	GO:0015991~ATP hydrolysis coupled proton transport	4	0.9070294784580499	0.1224701826104224	ATPALPHA, ATPSYNC, BLW, VHA68-1	321	42	10996	3.2624239727043465	1.0	0.8567246768258715	86.05180793054475
GOTERM_MF_DIRECT	GO:0046961~proton-transporting ATPase activity, rotational mechanism	4	0.9070294784580499	0.13242945057899028	ATPSYNGAMMA, BLW, VHA68-1, SUN	288	41	9284	3.1449864498644984	1.0	0.8535215911350611	85.17346259953027
KEGG_PATHWAY	dme00190:Oxidative phosphorylation	8	1.8140589569160999	0.2275642218692562	ND-42, UQCR-Q, ND-ACP, ATPSYNC, ATPSYNGAMMA, BLW, VHA68-1, SUN	99	139	2737	1.591163432890052	0.999999997680452	0.6686399192110211	93.4403307523344
GOTERM_CC_DIRECT	GO:0005743~mitochondrial inner membrane	5	1.1337868480725624	0.4189575159460435	CYT-C-P, ATPSYNGAMMA, BLW, SUN, SESB	293	113	10026	1.514089824519013	1.0	0.9753210596661636	99.8471551261021

Annotation Cluster 21	Enrichment Score: 1.2121283813675208
Category	Term	Count	%	PValue	Genes	List Total	Pop Hits	Pop Total	Fold Enrichment	Bonferroni	Benjamini	FDR
INTERPRO	IPR002401:Cytochrome P450, E-class, group I	8	1.8140589569160999	0.00824494369814854	CYP6V1, CYP4D1, CYP4E3, PHM, CYP6A21, CYP6A13, CYP4C3, CYP18A1	331	77	10984	3.4477184446972964	0.9917175063993268	0.27354161548127376	11.456840579470517
GOTERM_BP_DIRECT	GO:0046701~insecticide catabolic process	3	0.6802721088435374	0.14336518428113337	CYP6V1, CYP6A21, CYP6A13	321	23	10996	4.468102397399431	1.0	0.885056562132604	90.301335001847
GOTERM_BP_DIRECT	GO:0046680~response to DDT	3	0.6802721088435374	0.19542650458550764	CYP6V1, CYP6A21, CYP6A13	321	28	10996	3.67022696929239	1.0	0.9369295146591594	96.23170103943298

Annotation Cluster 22	Enrichment Score: 1.2106370843944818
Category	Term	Count	%	PValue	Genes	List Total	Pop Hits	Pop Total	Fold Enrichment	Bonferroni	Benjamini	FDR
KEGG_PATHWAY	dme00480:Glutathione metabolism	7	1.5873015873015872	0.021983134382231508	GSTD2, GSTE8, S-LAP8, GSTD10, GCLM, GSTE9, S-LAP4	99	62	2737	3.121375040729879	0.8194204782977449	0.28987680289958384	20.905145201775298
INTERPRO	IPR004046:Glutathione S-transferase, C-terminal	5	1.1337868480725624	0.022111487195055252	GSTD2, GSTE8, GSTD10, GSTZ2, GSTE9	331	36	10984	4.608929170862706	0.9999976147687977	0.4601621188946119	28.00864480366403
INTERPRO	IPR004045:Glutathione S-transferase, N-terminal	5	1.1337868480725624	0.02879820958480798	GSTD2, GSTE8, GSTD10, GSTZ2, GSTE9	331	39	10984	4.254396157719421	0.9999999551062739	0.491738251600497	34.914456161725795
GOTERM_MF_DIRECT	GO:0004364~glutathione transferase activity	5	1.1337868480725624	0.03989524591857481	GSTD2, GSTE8, GSTD10, GSTZ2, GSTE9	288	42	9284	3.8376322751322753	0.9999968297692774	0.5051141364275752	42.13363184052176
GOTERM_BP_DIRECT	GO:0006749~glutathione metabolic process	5	1.1337868480725624	0.047159708883507664	GSTD2, GSTE8, GSTD10, GSTZ2, GSTE9	321	47	10996	3.64419699078677	0.9999999999999979	0.6405753564120149	51.73071028809182
INTERPRO	IPR010987:Glutathione S-transferase, C-terminal-like	5	1.1337868480725624	0.06259966494927682	GSTD2, GSTE8, GSTD10, GSTZ2, GSTE9	331	50	10984	3.3184290030211483	0.9999999999999999	0.7010260138943092	61.32974368490392
GOTERM_MF_DIRECT	GO:0004602~glutathione peroxidase activity	4	0.9070294784580499	0.06424891596827806	GSTD2, GSTE8, GSTD10, GSTE9	288	30	9284	4.298148148148147	0.9999999989263434	0.6439235348987887	59.02685543402348
KEGG_PATHWAY	dme00980:Metabolism of xenobiotics by cytochrome P450	6	1.3605442176870748	0.06507210653431973	CG10178, GSTD2, GSTE8, GSTD10, GSTE9, CG5999	99	61	2737	2.719324391455539	0.9943776870373927	0.5229550661126403	50.830941898324426
KEGG_PATHWAY	dme00982:Drug metabolism - cytochrome P450	6	1.3605442176870748	0.06507210653431973	CG10178, GSTD2, GSTE8, GSTD10, GSTE9, CG5999	99	61	2737	2.719324391455539	0.9943776870373927	0.5229550661126403	50.830941898324426
INTERPRO	IPR012336:Thioredoxin-like fold	7	1.5873015873015872	0.13628147122552897	L(2)01289, GSTD2, GSTE8, CG9427, GSTD10, GSTZ2, GSTE9	331	116	10984	2.0025002604437963	1.0	0.8927212236021208	88.38955980473906
COG_ONTOLOGY	Posttranslational modification, protein turnover, chaperones	5	1.1337868480725624	0.788428644675277	GSTD2, GSTE8, CG4723, GSTD10, GSTE9	48	138	1239	0.9352355072463768	0.9999999999998473	0.999374942279612	99.99911959808718

Annotation Cluster 23	Enrichment Score: 1.0970459774607058
Category	Term	Count	%	PValue	Genes	List Total	Pop Hits	Pop Total	Fold Enrichment	Bonferroni	Benjamini	FDR
SMART	SM00708:PhBP	6	1.3605442176870748	8.661440333532155E-4	OBP83EF, OBP99B, OBP56H, OBP83A, OBP83CD, OBP56A	130	31	5218	7.768734491315136	0.0861766638467042	0.04405892642208553	0.9642001416520052
INTERPRO	IPR006170:Pheromone/general odorant binding protein	6	1.3605442176870748	0.010838970861837079	OBP83EF, OBP99B, OBP56H, OBP83A, OBP83CD, OBP56A	331	45	10984	4.424572004028198	0.9981820091612688	0.3100787666668119	14.800309126401533
GOTERM_BP_DIRECT	GO:0007606~sensory perception of chemical stimulus	7	1.5873015873015872	0.051473563674374605	DPR14, OBP83EF, OBP99B, OBP56H, OBP83A, OBP83CD, OBP56A	321	92	10996	2.6063930651496676	0.9999999999999999	0.6625857045906205	54.92272829086215
GOTERM_BP_DIRECT	GO:0019236~response to pheromone	3	0.6802721088435374	0.07748014131548801	OBP99B, OBP56H, OBP56A	321	16	10996	6.422897196261681	1.0	0.7471407745250902	70.35759865662034
GOTERM_BP_DIRECT	GO:0007608~sensory perception of smell	5	1.1337868480725624	0.1629129935790606	OBP99B, OBP56H, RDGA, ANTDH, OBP56A	321	73	10996	2.3462638159860028	1.0	0.9084077660414462	93.15212399568232
GOTERM_MF_DIRECT	GO:0005549~odorant binding	6	1.3605442176870748	0.2651816157713034	OBP83EF, OBP99B, OBP56H, OBP83A, OBP83CD, OBP56A	288	112	9284	1.7269345238095237	1.0	0.963280563794371	98.40799826798444
GOTERM_BP_DIRECT	GO:0042048~olfactory behavior	4	0.9070294784580499	0.26955348478862806	OBP99B, OBP56H, XRP1, OBP56A	321	62	10996	2.2100291427997187	1.0	0.9693464302333278	99.12254893220702
GOTERM_BP_DIRECT	GO:0006810~transport	5	1.1337868480725624	0.4183469317194489	CG4476, OBP99B, CNI, OBP56H, OBP56A	321	113	10996	1.515727951920161	1.0	0.9944207293516053	99.97170775323745
UP_KEYWORDS	Olfaction	3	0.6802721088435374	0.7337577810519653	OBP99B, OBP56H, OBP56A	423	85	13921	1.1615352523988318	1.0	0.976079720562272	99.9999927019184

Annotation Cluster 24	Enrichment Score: 1.090716171172635
Category	Term	Count	%	PValue	Genes	List Total	Pop Hits	Pop Total	Fold Enrichment	Bonferroni	Benjamini	FDR
SMART	SM00060:FN3	5	1.1337868480725624	0.030007833295464602	UNC-89, KAL1, BT, SLS, BDL	130	48	5218	4.181089743589744	0.9579374482086848	0.4693854883044921	28.87013575620363
INTERPRO	IPR013098:Immunoglobulin I-set	6	1.3605442176870748	0.047866237388596834	DPR14, UNC-89, BT, TROL, SLS, BDL	331	66	10984	3.016753639110135	0.9999999999995364	0.6507071430693405	51.368318312335944
INTERPRO	IPR007110:Immunoglobulin-like domain	9	2.0408163265306123	0.050651436764786825	DPR14, BEAT-VI, UNC-89, BT, TROL, BEAT-VC, SLS, BDL, DIP-THETA	331	135	10984	2.2122860020140984	0.999999999999915	0.6586533284135643	53.41774771173063
SMART	SM00408:IGc2	7	1.5873015873015872	0.05208355444723461	DPR14, UNC-89, BT, TROL, SLS, BDL, DIP-THETA	130	109	5218	2.577699364855328	0.9961621673825163	0.5011031593576853	45.01303422030398
SMART	SM00409:IG	7	1.5873015873015872	0.05599490270576469	DPR14, UNC-89, BT, TROL, SLS, BDL, DIP-THETA	130	111	5218	2.531254331254331	0.9975035016032234	0.4861757607108793	47.49733584282113
INTERPRO	IPR013783:Immunoglobulin-like fold	10	2.2675736961451247	0.0859428495400429	DPR14, BEAT-VI, UNC-89, KAL1, BT, TROL, BEAT-VC, SLS, BDL, DIP-THETA	331	177	10984	1.87481864577466	1.0	0.7933384448570189	73.30581292179463
INTERPRO	IPR003598:Immunoglobulin subtype 2	7	1.5873015873015872	0.10992983208828899	DPR14, UNC-89, BT, TROL, SLS, BDL, DIP-THETA	331	109	10984	2.1311011946007374	1.0	0.8543426132919804	81.94169653066535
INTERPRO	IPR003599:Immunoglobulin subtype	7	1.5873015873015872	0.1171709793190919	DPR14, UNC-89, BT, TROL, SLS, BDL, DIP-THETA	331	111	10984	2.092702974878202	1.0	0.8652541702906915	83.98464995161099
INTERPRO	IPR003961:Fibronectin, type III	5	1.1337868480725624	0.1257818663065924	UNC-89, KAL1, BT, SLS, BDL	331	64	10984	2.592522658610272	1.0	0.8779805874533689	86.13328955398448
UP_KEYWORDS	Immunoglobulin domain	3	0.6802721088435374	0.41915058169606667	TROL, SLS, BDL	423	47	13921	2.1006488607212916	1.0	0.8506440750722635	99.8824587020703

Annotation Cluster 25	Enrichment Score: 0.998966704008528
Category	Term	Count	%	PValue	Genes	List Total	Pop Hits	Pop Total	Fold Enrichment	Bonferroni	Benjamini	FDR
GOTERM_BP_DIRECT	GO:0007601~visual perception	6	1.3605442176870748	0.023027259954633957	BOSS, CRYS, CHP, GBETA76C, RDGA, RH4	321	56	10996	3.67022696929239	0.9999999153104642	0.4409862488972517	29.619841292115844
UP_KEYWORDS	Vision	6	1.3605442176870748	0.026952155295765175	BOSS, PINTA, CHP, GBETA76C, RDGA, RH4	423	56	13921	3.5260891590678822	0.994280436841007	0.18661808036617067	28.77164595902004
UP_KEYWORDS	Sensory transduction	10	2.2675736961451247	0.03249936151781209	BOSS, OBP99B, OBP56H, PINTA, CHP, ATK, GBETA76C, RDGA, RH4, OBP56A	423	145	13921	2.2696665851471427	0.9980587199309046	0.2135054820519392	33.65314469919253
GOTERM_BP_DIRECT	GO:0007602~phototransduction	5	1.1337868480725624	0.06406577622259937	NINAD, PINTA, GBETA76C, RDGA, RH4	321	52	10996	3.2937934339803503	1.0	0.7137339481217786	63.14938064120991
GOTERM_BP_DIRECT	GO:0007186~G-protein coupled receptor signaling pathway	4	0.9070294784580499	0.7908045078584778	BOSS, NPF, GBETA76C, RH4	321	143	10996	0.9581944535215563	1.0	0.9999899839725703	99.9999999943053
UP_KEYWORDS	Transducer	3	0.6802721088435374	0.9926449882706894	BOSS, GBETA76C, RH4	423	226	13921	0.4368606037783217	1.0	0.9999861331123033	100.0

Annotation Cluster 26	Enrichment Score: 0.9658722235120907
Category	Term	Count	%	PValue	Genes	List Total	Pop Hits	Pop Total	Fold Enrichment	Bonferroni	Benjamini	FDR
UP_KEYWORDS	ATP-binding	26	5.895691609977324	0.03311164097764144	MYO28B1, CG17646, NOD, BT, ATPALPHA, BLW, IPK1, ACT57B, GDH, SERCA, MHC, ACT79B, CCT5, HSP68, PUG, HSP70AA, HSP70AB, ACT87E, HSP70BB, HSP70BC, ACT88F, ADE3, SELD, RDGA, VHA68-1, ADE5	423	558	13921	1.5334485709685892	0.9982776291883656	0.20998684941369516	34.172655648846586
UP_KEYWORDS	Nucleotide-binding	27	6.122448979591836	0.16570153199724436	MYO28B1, BT, NOD, BLW, ACT57B, GDH, HSP68, HSP70AA, HSP70AB, ACT88F, ADE3, VHA68-1, ADE5, CG17646, ATPALPHA, IPK1, SERCA, ACT79B, MHC, PU, CCT5, PUG, ACT87E, HSP70BB, HSP70BC, SELD, RDGA	423	701	13921	1.2675812668831759	0.9999999999999987	0.5661785152114174	89.4564678247713
GOTERM_MF_DIRECT	GO:0005524~ATP binding	28	6.349206349206349	0.23071514347416094	MYO28B1, LZ, BT, NOD, BLW, ACT57B, GDH, HSP68, UNC-89, HSP70AA, HSP70AB, ACT88F, ADE3, ADE5, VHA68-1, CG17646, ATPALPHA, IPK1, SERCA, ACT79B, MHC, CCT5, PUG, ACT87E, HSP70BB, HSP70BC, SELD, RDGA	288	751	9284	1.2018789761799085	1.0	0.9512591484750659	97.05270315993998

Annotation Cluster 27	Enrichment Score: 0.8706668075322153
Category	Term	Count	%	PValue	Genes	List Total	Pop Hits	Pop Total	Fold Enrichment	Bonferroni	Benjamini	FDR
KEGG_PATHWAY	dme01130:Biosynthesis of antibiotics	12	2.7210884353741496	0.05397766699233565	KDN, CG11876, CG10924, CG9547, CG8036, ADSL, CG7430, ADE3, CG10184, L(1)G0156, TALDO, ADE5	99	180	2737	1.8430976430976431	0.9860553712839547	0.5093921503528096	44.31407585331447
KEGG_PATHWAY	dme00020:Citrate cycle (TCA cycle)	5	1.1337868480725624	0.06570845875533911	KDN, CG11876, CG10924, CG7430, L(1)G0156	99	43	2737	3.2147051914493776	0.9946648565363396	0.48013178797685585	51.1828886491959
KEGG_PATHWAY	dme01230:Biosynthesis of amino acids	5	1.1337868480725624	0.1870938647126425	KDN, CG8036, CG10184, L(1)G0156, TALDO	99	63	2737	2.1941638608305274	0.99999988166563	0.679946775251322	88.75723480064266
KEGG_PATHWAY	dme01200:Carbon metabolism	7	1.5873015873015872	0.19878978537764067	KDN, CG11876, CG8036, CG7430, GDH, L(1)G0156, TALDO	99	110	2737	1.7593204775022957	0.9999999612315208	0.67944793101011	90.35130608988818
GOTERM_BP_DIRECT	GO:0006099~tricarboxylic acid cycle	3	0.6802721088435374	0.33602915600638134	KDN, CG7430, L(1)G0156	321	41	10996	2.506496466833827	1.0	0.9842132716106152	99.79183361826409

Annotation Cluster 28	Enrichment Score: 0.7859807653709923
Category	Term	Count	%	PValue	Genes	List Total	Pop Hits	Pop Total	Fold Enrichment	Bonferroni	Benjamini	FDR
GOTERM_CC_DIRECT	GO:0070469~respiratory chain	3	0.6802721088435374	0.06916886829104861	ND-42, CYT-C-P, ND-ACP	293	15	10026	6.843686006825939	0.9999785890972046	0.5360470642706333	57.511941645886424
UP_KEYWORDS	Respiratory chain	3	0.6802721088435374	0.16381368796561052	ND-42, CYT-C-P, ND-ACP	423	24	13921	4.113770685579197	0.9999999999999979	0.570580333277313	89.15634901592368
UP_KEYWORDS	Electron transport	3	0.6802721088435374	0.3870765362349743	ND-42, CYT-C-P, ND-ACP	423	44	13921	2.243874919406834	1.0	0.83701315118514	99.77088415829782

Annotation Cluster 29	Enrichment Score: 0.6961772081883
Category	Term	Count	%	PValue	Genes	List Total	Pop Hits	Pop Total	Fold Enrichment	Bonferroni	Benjamini	FDR
KEGG_PATHWAY	dme00020:Citrate cycle (TCA cycle)	5	1.1337868480725624	0.06570845875533911	KDN, CG11876, CG10924, CG7430, L(1)G0156	99	43	2737	3.2147051914493776	0.9946648565363396	0.48013178797685585	51.1828886491959
KEGG_PATHWAY	dme00620:Pyruvate metabolism	4	0.9070294784580499	0.2167313238357429	CG11876, CG10924, CG7430, CG14022	99	45	2737	2.457463524130191	0.9999999932215806	0.6913647492906925	92.40205940209097
KEGG_PATHWAY	dme00010:Glycolysis / Gluconeogenesis	3	0.6802721088435374	0.5726976632671372	CG11876, CG10924, CG7430	99	53	2737	1.5648942252715836	1.0	0.9035011836295895	99.98729311386772

Annotation Cluster 30	Enrichment Score: 0.6285820091950262
Category	Term	Count	%	PValue	Genes	List Total	Pop Hits	Pop Total	Fold Enrichment	Bonferroni	Benjamini	FDR
INTERPRO	IPR015422:Pyridoxal phosphate-dependent transferase, major region, subdomain 2	3	0.6802721088435374	0.18309778556309567	CG10184, GAD1, CG8745	331	26	10984	3.8289565419474787	1.0	0.950333518285003	94.8814830721811
INTERPRO	IPR015421:Pyridoxal phosphate-dependent transferase, major region, subdomain 1	3	0.6802721088435374	0.2609937513784817	CG10184, GAD1, CG8745	331	33	10984	3.016753639110135	1.0	0.9777833036862216	98.82647530798711
INTERPRO	IPR015424:Pyridoxal phosphate-dependent transferase	3	0.6802721088435374	0.2722330010821785	CG10184, GAD1, CG8745	331	34	10984	2.9280255909010133	1.0	0.9800536558568621	99.06314760927017

Annotation Cluster 31	Enrichment Score: 0.6240341118270099
Category	Term	Count	%	PValue	Genes	List Total	Pop Hits	Pop Total	Fold Enrichment	Bonferroni	Benjamini	FDR
INTERPRO	IPR023415:Low-density lipoprotein (LDL) receptor class A, conserved site	3	0.6802721088435374	0.2050888228042147	TROL, SERP, CG1632	331	28	10984	3.555459646094088	1.0	0.9639328532163033	96.57263409252211
SMART	SM00192:LDLa	3	0.6802721088435374	0.21399919652332838	TROL, SERP, CG1632	130	35	5218	3.4404395604395606	0.9999999999866958	0.8543253712661056	93.22832263463881
INTERPRO	IPR002172:Low-density lipoprotein (LDL) receptor class A repeat	3	0.6802721088435374	0.30587468104107035	TROL, SERP, CG1632	331	37	10984	2.6906181105576876	1.0	0.9828417952284876	99.53271962191711

Annotation Cluster 32	Enrichment Score: 0.6199347595902134
Category	Term	Count	%	PValue	Genes	List Total	Pop Hits	Pop Total	Fold Enrichment	Bonferroni	Benjamini	FDR
UP_SEQ_FEATURE	disulfide bond	16	3.6281179138321997	0.060521058238688974	OBP99B, OBP56H, OBP83A, ILP3, OBP56A, PGRP-SB1, PGRP-SD, EYS, PHM, NRV2, IDGF1, TLD, PRM, SLS, RH4, DRS	116	265	3113	1.620299284320104	0.999999999999567	0.9966325670849582	58.82614372546957
UP_KEYWORDS	Glycoprotein	17	3.8548752834467117	0.45507081102208746	CAD89D, ANCE-5, NAAT1, ATTC, OBP56A, PGRP-SB1, BOSS, PGRP-SD, EYS, PHM, NRV2, TOTA, IDGF1, CHP, TLD, WNT5, RH4	423	503	13921	1.1122719945104784	1.0	0.8664145419094487	99.94679824020005
UP_SEQ_FEATURE	glycosylation site:N-linked (GlcNAc...)	17	3.8548752834467117	0.5014299008982464	CAD89D, RYR, NAAT1, OBP56A, PGRP-SB1, BOSS, PGRP-SD, EYS, PHM, NRV2, TOTA, IDGF1, CHP, TLD, WNT5, RH4, DRS	116	423	3113	1.0785236814217003	1.0	0.9999999993530401	99.99494714836675

Annotation Cluster 33	Enrichment Score: 0.5985369826831894
Category	Term	Count	%	PValue	Genes	List Total	Pop Hits	Pop Total	Fold Enrichment	Bonferroni	Benjamini	FDR
SMART	SM00132:LIM	3	0.6802721088435374	0.2048794538568097	ZASP52, MLP84B, CG33521	130	34	5218	3.5416289592760184	0.99999999995584	0.885543873314715	92.29603570797181
UP_KEYWORDS	LIM domain	3	0.6802721088435374	0.2756701344056467	ZASP52, MLP84B, CG33521	423	34	13921	2.9038381309970798	1.0	0.7191337568931322	98.17728262253685
INTERPRO	IPR001781:Zinc finger, LIM-type	3	0.6802721088435374	0.2834659678757128	ZASP52, MLP84B, CG33521	331	35	10984	2.84436771687527	1.0	0.9805270825829555	99.25461000066078

Annotation Cluster 34	Enrichment Score: 0.5737969235266699
Category	Term	Count	%	PValue	Genes	List Total	Pop Hits	Pop Total	Fold Enrichment	Bonferroni	Benjamini	FDR
INTERPRO	IPR000718:Peptidase M13	3	0.6802721088435374	0.2050888228042147	CG13283, CG9780, CG4723	331	28	10984	3.555459646094088	1.0	0.9639328532163033	96.57263409252211
INTERPRO	IPR024079:Metallopeptidase, catalytic domain	4	0.9070294784580499	0.21274007137217593	CG13283, CG9780, CG4723, TLD	331	53	10984	2.504474719261244	1.0	0.9658818454371008	97.02679109201992
GOTERM_MF_DIRECT	GO:0004222~metalloendopeptidase activity	4	0.9070294784580499	0.4353293381404246	CG13283, CG9780, CG4723, TLD	288	78	9284	1.6531339031339032	1.0	0.9954200786456637	99.953759149859

Annotation Cluster 35	Enrichment Score: 0.541284450768848
Category	Term	Count	%	PValue	Genes	List Total	Pop Hits	Pop Total	Fold Enrichment	Bonferroni	Benjamini	FDR
SMART	SM00181:EGF	4	0.9070294784580499	0.22296689292930774	EYS, TROL, CG9572, TLD	130	66	5218	2.432634032634033	0.9999999999959662	0.8464951250182025	94.04372456805503
INTERPRO	IPR013032:EGF-like, conserved site	4	0.9070294784580499	0.2772768039000205	EYS, TROL, CG9572, TLD	331	61	10984	2.1760190183745234	1.0	0.9801001558456252	99.1541756102459
INTERPRO	IPR000742:Epidermal growth factor-like domain	4	0.9070294784580499	0.3845853408807476	EYS, TROL, CG9572, TLD	331	74	10984	1.7937454070384584	1.0	0.9945120430548798	99.92031931252373

Annotation Cluster 36	Enrichment Score: 0.522844484921194
Category	Term	Count	%	PValue	Genes	List Total	Pop Hits	Pop Total	Fold Enrichment	Bonferroni	Benjamini	FDR
UP_KEYWORDS	FAD	4	0.9070294784580499	0.27352552965047927	ND-42, CG9509, CG9547, CG7430	423	60	13921	2.1940110323089046	1.0	0.72335127716044	98.1091227423816
GOTERM_MF_DIRECT	GO:0050660~flavin adenine dinucleotide binding	4	0.9070294784580499	0.2832953183609288	CG9509, CG9547, CG7430, CG9512	288	60	9284	2.1490740740740737	1.0	0.9683509628482408	98.86159650725645
UP_KEYWORDS	Flavoprotein	4	0.9070294784580499	0.34852126363463604	ND-42, CG9509, CG9547, CG7430	423	69	13921	1.9078356802686127	1.0	0.8020557332676774	99.51128905963354

Annotation Cluster 37	Enrichment Score: 0.49463470307366625
Category	Term	Count	%	PValue	Genes	List Total	Pop Hits	Pop Total	Fold Enrichment	Bonferroni	Benjamini	FDR
INTERPRO	IPR000301:Tetraspanin	3	0.6802721088435374	0.2050888228042147	TSP5D, TM4SF, TSP42ED	331	28	10984	3.555459646094088	1.0	0.9639328532163033	96.57263409252211
INTERPRO	IPR018499:Tetraspanin/Peripherin	3	0.6802721088435374	0.2946829119802289	TSP5D, TM4SF, TSP42ED	331	36	10984	2.7653575025176234	1.0	0.9824494221833295	99.40888486139177
INTERPRO	IPR008952:Tetraspanin, EC2 domain	3	0.6802721088435374	0.30587468104107035	TSP5D, TM4SF, TSP42ED	331	37	10984	2.6906181105576876	1.0	0.9828417952284876	99.53271962191711
GOTERM_BP_DIRECT	GO:0007166~cell surface receptor signaling pathway	3	0.6802721088435374	0.5683563455688053	TSP5D, TM4SF, TSP42ED	321	65	10996	1.5810208483105679	1.0	0.9993515031967177	99.99968484926733

Annotation Cluster 38	Enrichment Score: 0.4818537248231693
Category	Term	Count	%	PValue	Genes	List Total	Pop Hits	Pop Total	Fold Enrichment	Bonferroni	Benjamini	FDR
GOTERM_BP_DIRECT	GO:0006814~sodium ion transport	4	0.9070294784580499	0.21495152624900352	ATPALPHA, NRV3, NRV2, NAAT1	321	55	10996	2.4913055791560463	1.0	0.9485839320932057	97.3981797099594
UP_KEYWORDS	Sodium transport	3	0.6802721088435374	0.39785811363483814	ATPALPHA, NRV2, NAAT1	423	45	13921	2.1940110323089046	1.0	0.8361683723987177	99.81619973715354
UP_KEYWORDS	Sodium	3	0.6802721088435374	0.41915058169606667	ATPALPHA, NRV2, NAAT1	423	47	13921	2.1006488607212916	1.0	0.8506440750722635	99.8824587020703

Annotation Cluster 39	Enrichment Score: 0.47192175099880673
Category	Term	Count	%	PValue	Genes	List Total	Pop Hits	Pop Total	Fold Enrichment	Bonferroni	Benjamini	FDR
GOTERM_MF_DIRECT	GO:0015101~organic cation transmembrane transporter activity	3	0.6802721088435374	0.11542997403953091	CG42269, CG4462, CG6231	288	19	9284	5.089912280701754	1.0	0.8234013911775907	80.75695722346134
INTERPRO	IPR005828:General substrate transporter	4	0.9070294784580499	0.26090278921137017	CG6006, CG42269, SUT1, CG6231	331	59	10984	2.2497823749295915	1.0	0.9795531325503515	98.8243505655828
INTERPRO	IPR005829:Sugar transporter, conserved site	3	0.6802721088435374	0.30587468104107035	CG6006, SUT1, CG15096	331	37	10984	2.6906181105576876	1.0	0.9828417952284876	99.53271962191711
INTERPRO	IPR020846:Major facilitator superfamily domain	7	1.5873015873015872	0.430149680899076	CLN3, CG6006, CG42269, SUT1, CG4462, CG6231, CG15096	331	175	10984	1.3273716012084593	1.0	0.9966959708278653	99.9742745842842
GOTERM_MF_DIRECT	GO:0022857~transmembrane transporter activity	4	0.9070294784580499	0.4994633485374551	CG6006, CG42269, CG6231, CG15096	288	86	9284	1.4993540051679586	1.0	0.9982187603665786	99.99084821700812
GOTERM_BP_DIRECT	GO:0055085~transmembrane transport	8	1.8140589569160999	0.7447412596579038	CG6006, CG42269, CG5002, SUT1, CG4462, CG6231, CG15096, SESB	321	290	10996	0.9449779783005694	1.0	0.9999651028601125	99.99999988555066

Annotation Cluster 40	Enrichment Score: 0.4158606647327934
Category	Term	Count	%	PValue	Genes	List Total	Pop Hits	Pop Total	Fold Enrichment	Bonferroni	Benjamini	FDR
UP_SEQ_FEATURE	transit peptide:Mitochondrion	7	1.5873015873015872	0.25617536057806345	ND-42, KDN, ND-ACP, ATPSYNGAMMA, BLW, GDH, L(1)G0156	116	116	3113	1.6194262782401905	1.0	0.9999953024598157	98.51027424169132
UP_KEYWORDS	Transit peptide	7	1.5873015873015872	0.2928797217687807	ND-42, KDN, ND-ACP, ATPSYNGAMMA, BLW, GDH, L(1)G0156	423	148	13921	1.5565618810299662	1.0	0.7372914995827036	98.64780573879945
GOTERM_CC_DIRECT	GO:0005739~mitochondrion	15	3.4013605442176873	0.5292671412433712	ND-42, KDN, CG10924, ND-ACP, BLW, GDH, L(1)G0156, CYT-C-P, HSP68, CG11876, MRPS9, CG9547, ATPSYNGAMMA, CG8745, SESB	293	477	10026	1.076051258934896	1.0	0.9909875946596933	99.98762957371916
UP_KEYWORDS	Mitochondrion	9	2.0408163265306123	0.5465825334464216	ND-42, CYT-C-P, KDN, ND-ACP, ATPSYNGAMMA, BLW, GDH, L(1)G0156, SESB	423	263	13921	1.12620338160343	1.0	0.910283218477337	99.99457416149646

Annotation Cluster 41	Enrichment Score: 0.3570551167916644
Category	Term	Count	%	PValue	Genes	List Total	Pop Hits	Pop Total	Fold Enrichment	Bonferroni	Benjamini	FDR
SMART	SM00369:LRR_TYP	4	0.9070294784580499	0.303468608993374	RDO, CHP, ATK, SCLP	130	78	5218	2.0583826429980276	1.0	0.9185191638350949	98.2466139142085
INTERPRO	IPR003591:Leucine-rich repeat, typical subtype	4	0.9070294784580499	0.4171102052473258	RDO, CHP, ATK, SCLP	331	78	10984	1.7017584630877682	1.0	0.99623008681406	99.96412662478913
INTERPRO	IPR001611:Leucine-rich repeat	4	0.9070294784580499	0.6706100535850263	RDO, CHP, ATK, SCLP	331	114	10984	1.164361053691631	1.0	0.999973563654452	99.99999184014953

Annotation Cluster 42	Enrichment Score: 0.3071798957064743
Category	Term	Count	%	PValue	Genes	List Total	Pop Hits	Pop Total	Fold Enrichment	Bonferroni	Benjamini	FDR
GOTERM_BP_DIRECT	GO:0007156~homophilic cell adhesion via plasma membrane adhesion molecules	3	0.6802721088435374	0.2602523499720417	CAD89D, CHP, BDL	321	34	10996	3.022539857064321	1.0	0.9665787181931689	98.93811461666188
UP_KEYWORDS	Cell adhesion	3	0.6802721088435374	0.46053796850499373	CAD89D, CHP, BDL	423	51	13921	1.9358920873313863	1.0	0.8661673155103748	99.95305966806576
UP_KEYWORDS	Cell membrane	4	0.9070294784580499	0.9995400775669965	CAD89D, BOSS, CHP, BDL	423	391	13921	0.33667688475328456	1.0	0.9999999437697547	100.0

Annotation Cluster 43	Enrichment Score: 0.2835288779457008
Category	Term	Count	%	PValue	Genes	List Total	Pop Hits	Pop Total	Fold Enrichment	Bonferroni	Benjamini	FDR
SMART	SM00587:CHK	3	0.6802721088435374	0.3608150835628984	CG33301, CG13360, CG11893	130	51	5218	2.361085972850679	1.0	0.945477926197895	99.32910014921468
INTERPRO	IPR004119:Protein of unknown function DUF227	3	0.6802721088435374	0.4559815339152853	CG33301, CG13360, CG11893	331	51	10984	1.9520170606006757	1.0	0.997705464394429	99.98699066131356
INTERPRO	IPR015897:CHK kinase-like	3	0.6802721088435374	0.4559815339152853	CG33301, CG13360, CG11893	331	51	10984	1.9520170606006757	1.0	0.997705464394429	99.98699066131356
INTERPRO	IPR011009:Protein kinase-like domain	5	1.1337868480725624	0.9788255413439828	CG33301, CG13360, UNC-89, BT, CG11893	331	294	10984	0.5643586739831885	1.0	0.9999999999999944	100.0

Annotation Cluster 44	Enrichment Score: 0.2507078607711179
Category	Term	Count	%	PValue	Genes	List Total	Pop Hits	Pop Total	Fold Enrichment	Bonferroni	Benjamini	FDR
SMART	SM00184:RING	4	0.9070294784580499	0.303468608993374	TN, MAT1, MDLC, GOL	130	78	5218	2.0583826429980276	1.0	0.9185191638350949	98.2466139142085
INTERPRO	IPR001841:Zinc finger, RING-type	6	1.3605442176870748	0.30469021100500104	CG2681, CG8910, TN, MAT1, MDLC, GOL	331	122	10984	1.6320142637808928	1.0	0.9838467460962891	99.52086244274653
INTERPRO	IPR013083:Zinc finger, RING/FYVE/PHD-type	6	1.3605442176870748	0.7537350760621053	CG2681, CG8910, TN, MAT1, MDLC, GOL	331	208	10984	0.9572391354868697	1.0	0.999997927544637	99.99999988641818
GOTERM_BP_DIRECT	GO:0016567~protein ubiquitination	4	0.9070294784580499	0.8023193573613405	CG2681, TN, CG2010, GOL	321	146	10996	0.9385055263944011	1.0	0.9999915552464919	99.99999999757486
UP_KEYWORDS	Zinc-finger	5	1.1337868480725624	0.9975218650287647	CG2681, HR51, TN, GOL, RDGA	423	384	13921	0.42851777974783295	1.0	0.9999981244222211	100.0

Annotation Cluster 45	Enrichment Score: 0.21582113606403516
Category	Term	Count	%	PValue	Genes	List Total	Pop Hits	Pop Total	Fold Enrichment	Bonferroni	Benjamini	FDR
SMART	SM00353:HLH	4	0.9070294784580499	0.1660695691375057	NET, SIDPN, CLK, MYC	130	57	5218	2.8167341430499326	0.9999999937266216	0.8487309261436942	86.87403396318565
INTERPRO	IPR011598:Myc-type, basic helix-loop-helix (bHLH) domain	4	0.9070294784580499	0.2527635720597763	NET, SIDPN, CLK, MYC	331	58	10984	2.2885717262214813	1.0	0.9783816378513499	98.61902834267335
GOTERM_MF_DIRECT	GO:0046983~protein dimerization activity	4	0.9070294784580499	0.2832953183609288	NET, SIDPN, MYC, XRP1	288	60	9284	2.1490740740740737	1.0	0.9683509628482408	98.86159650725645
GOTERM_BP_DIRECT	GO:0006355~regulation of transcription, DNA-templated	12	2.7210884353741496	0.6233659410388681	ART3, VRI, ETS65A, NET, SIDPN, DR, YPS, PER, GOL, NUP107, CG11085, MYC	321	401	10996	1.0251007994033607	1.0	0.9997041679895391	99.99995965129109
GOTERM_MF_DIRECT	GO:0043565~sequence-specific DNA binding	8	1.8140589569160999	0.7098317201359636	PDP1, VRI, ETS65A, LZ, HR51, DR, CG11085, MYC	288	263	9284	0.9805661174482466	1.0	0.9999481226613315	99.99999397496951
GOTERM_MF_DIRECT	GO:0003700~transcription factor activity, sequence-specific DNA binding	7	1.5873015873015872	0.8585022788655061	PDP1, ETS65A, NET, LZ, HR51, CLK, MYC	288	275	9284	0.8205555555555556	1.0	0.9999992793141598	99.99999999961172
GOTERM_BP_DIRECT	GO:0006351~transcription, DNA-templated	7	1.5873015873015872	0.9654256224905287	VRI, LZ, HR51, SIDPN, CLK, GOL, MYC	321	376	10996	0.6377344733876847	1.0	0.9999999998490812	100.0
UP_KEYWORDS	DNA-binding	10	2.2675736961451247	0.983408987447563	ETS65A, NET, LZ, HR51, DR, CLK, TBP, GOL, CG11085, MYC	423	535	13921	0.6151432800866088	1.0	0.9999448919690956	100.0
UP_KEYWORDS	Transcription	7	1.5873015873015872	0.9930898066875121	LZ, HR51, SIDPN, CLK, TBP, GOL, MYC	423	442	13921	0.5212017158199886	1.0	0.9999862325679055	100.0
UP_KEYWORDS	Transcription regulation	6	1.3605442176870748	0.9959181218076235	LZ, HR51, SIDPN, CLK, GOL, MYC	423	416	13921	0.4746658483360611	1.0	0.999995128339314	100.0
GOTERM_MF_DIRECT	GO:0003677~DNA binding	9	2.0408163265306123	0.9963650488401181	ETS65A, NET, LZ, SIDPN, YPS, CLK, GOL, HNG1, MYC	288	555	9284	0.5227477477477478	1.0	0.9999999999999951	100.0

Annotation Cluster 46	Enrichment Score: 0.03245035477080351
Category	Term	Count	%	PValue	Genes	List Total	Pop Hits	Pop Total	Fold Enrichment	Bonferroni	Benjamini	FDR
GOTERM_CC_DIRECT	GO:0016021~integral component of membrane	74	16.780045351473923	0.8953483384382316	CG13563, DPR14, CG4462, TM4SF, CG7582, CG34172, CG7255, CG7202, TYN, CG7781, RH50, CG13116, CG4239, GOL, RH4, CLN3, GAT, SUT1, KCC, CG17646, NAAT1, CG8861, SERCA, CG1632, DTG, CG30033, CG5999, CG13796, CG1667, AQP, CG9095, CG5002, BEAT-VI, YPS, ATPSYNC, CG14591, CG9194, TSP42ED, L(2)01289, CG31475, CG10936, CG34456, CG10178, CG8177, CG14298, CYP6V1, BOSS, TSP5D, CG6231, CHP, SYNGR, CG4476, STUM, DRD, CG42269, ATPALPHA, RYR, CYP18A1, CG13670, CG6006, RDO, CG8630, EYS, NINAD, IR75A, IR75B, CCP84AG, CG43778, CNI, PHM, CG42329, CG15096, INAF-C, SESB	293	2814	10026	0.8998449973438513	1.0	0.9999914940788595	99.99999999980315
UP_KEYWORDS	Membrane	88	19.954648526077097	0.9293197138097444	CG13563, DPR14, CG4462, CYP4E3, TM4SF, CG7582, CG34172, CG7255, CG7202, TYN, CG7781, RH50, CG13116, CG4239, GOL, ATPSYNGAMMA, RH4, CLN3, GAT, SUT1, KCC, CYP4D1, CG17646, NAAT1, CG8861, SERCA, CG1632, DTG, CG30033, CG5999, CG13796, CG1667, AQP, CG9095, CG5002, BEAT-VI, YPS, ATPSYNC, CG14591, RDGA, CG9194, TSP42ED, L(2)01289, CAD89D, CG31475, CG10936, CG34456, CG10178, CG8177, BLW, CG14298, CYP4C3, OSI2, CYP6V1, BOSS, TSP5D, CG6231, NRV3, NRV2, CYP6A21, CHP, SYNGR, BDL, CG4476, STUM, DRD, CG42269, ATPALPHA, RYR, CYP9B1, CYP18A1, CG13670, CG6006, RDO, CG8630, EYS, NINAD, IR75A, CG43778, IR75B, CCP84AG, CNI, PHM, CG42329, CG15096, INAF-C, CYP6A13, SESB	423	3266	13921	0.8867405274487918	1.0	0.9988490786236388	99.99999999999949
UP_KEYWORDS	Transmembrane helix	79	17.913832199546487	0.9430976005770044	CG13563, DPR14, CG4462, TM4SF, CG7582, CG34172, CG7255, CG7202, TYN, CG7781, RH50, CG13116, CG4239, GOL, RH4, CLN3, GAT, SUT1, KCC, CG17646, NAAT1, CG8861, SERCA, CG1632, DTG, CG30033, CG5999, CG13796, CG1667, AQP, CG9095, CG5002, BEAT-VI, YPS, ATPSYNC, CG14591, CG9194, TSP42ED, L(2)01289, CAD89D, CG31475, CG10936, CG34456, CG10178, CG8177, CG14298, OSI2, CYP6V1, BOSS, TSP5D, CG6231, NRV3, NRV2, CHP, SYNGR, BDL, CG4476, STUM, DRD, CG42269, ATPALPHA, RYR, CYP18A1, CG13670, CG6006, RDO, CG8630, EYS, NINAD, IR75A, CG43778, IR75B, CCP84AG, CNI, PHM, CG42329, CG15096, INAF-C, SESB	423	2985	13921	0.8709893042834345	1.0	0.9991979410112618	99.99999999999997
UP_KEYWORDS	Transmembrane	79	17.913832199546487	0.9451152242415142	CG13563, DPR14, CG4462, TM4SF, CG7582, CG34172, CG7255, CG7202, TYN, CG7781, RH50, CG13116, CG4239, GOL, RH4, CLN3, GAT, SUT1, KCC, CG17646, NAAT1, CG8861, SERCA, CG1632, DTG, CG30033, CG5999, CG13796, CG1667, AQP, CG9095, CG5002, BEAT-VI, YPS, ATPSYNC, CG14591, CG9194, TSP42ED, L(2)01289, CAD89D, CG31475, CG10936, CG34456, CG10178, CG8177, CG14298, OSI2, CYP6V1, BOSS, TSP5D, CG6231, NRV3, NRV2, CHP, SYNGR, BDL, CG4476, STUM, DRD, CG42269, ATPALPHA, RYR, CYP18A1, CG13670, CG6006, RDO, CG8630, EYS, NINAD, IR75A, CG43778, IR75B, CCP84AG, CNI, PHM, CG42329, CG15096, INAF-C, SESB	423	2990	13921	0.8695328004301177	1.0	0.9991947562242328	99.99999999999997

Annotation Cluster 47	Enrichment Score: 0.025921410507470412
Category	Term	Count	%	PValue	Genes	List Total	Pop Hits	Pop Total	Fold Enrichment	Bonferroni	Benjamini	FDR
SMART	SM00020:Tryp_SPc	5	1.1337868480725624	0.8775658773951712	JON65AIV, JON65AIII, YIP7, CG1632, CG31205	130	252	5218	0.7963980463980463	1.0	0.9999973690702705	99.99999999366726
INTERPRO	IPR018114:Peptidase S1, trypsin family, active site	4	0.9070294784580499	0.9218242528035738	JON65AIV, JON65AIII, YIP7, CG31205	331	186	10984	0.7136406458109995	1.0	0.9999999999328872	100.0
UP_KEYWORDS	Serine protease	3	0.6802721088435374	0.9403022577021566	JON65AIV, JON65AIII, YIP7	423	147	13921	0.6716360302986443	1.0	0.9991769732982668	99.99999999999993
INTERPRO	IPR001254:Peptidase S1	5	1.1337868480725624	0.9531449126058923	JON65AIV, JON65AIII, YIP7, CG1632, CG31205	331	257	10984	0.6456087554515852	1.0	0.9999999999985562	100.0
INTERPRO	IPR009003:Trypsin-like cysteine/serine peptidase domain	5	1.1337868480725624	0.9586798952416294	JON65AIV, JON65AIII, YIP7, CG1632, CG31205	331	263	10984	0.6308800385971765	1.0	0.9999999999992756	100.0
INTERPRO	IPR001314:Peptidase S1A, chymotrypsin-type	4	0.9070294784580499	0.9705309259939384	JON65AIV, JON65AIII, YIP7, CG31205	331	229	10984	0.5796382538028206	1.0	0.9999999999999407	100.0
GOTERM_MF_DIRECT	GO:0004252~serine-type endopeptidase activity	5	1.1337868480725624	0.9761416794568738	JON65AIV, JON65AIII, YIP7, CG1632, CG31205	288	280	9284	0.5756448412698413	1.0	0.9999999999692065	100.0

Annotation Cluster 48	Enrichment Score: 0.004186578652151745
Category	Term	Count	%	PValue	Genes	List Total	Pop Hits	Pop Total	Fold Enrichment	Bonferroni	Benjamini	FDR
UP_SEQ_FEATURE	topological domain:Cytoplasmic	9	2.0408163265306123	0.9854075694198109	CAD89D, BOSS, EYS, NRV2, RYR, GOL, NAAT1, RH4, SERCA	116	397	3113	0.6083774863198124	1.0	1.0	100.0
UP_SEQ_FEATURE	topological domain:Extracellular	6	1.3605442176870748	0.9928380620897449	CAD89D, BOSS, EYS, NRV2, GOL, RH4	116	312	3113	0.5160809018567639	1.0	1.0	100.0
UP_SEQ_FEATURE	transmembrane region	13	2.947845804988662	0.992992462349423	CAD89D, BOSS, EYS, CNI, ATPALPHA, NRV2, RYR, GOL, NAAT1, RH4, SERCA, SESB, CYP18A1	116	566	3113	0.6163793103448276	1.0	1.0	100.0

